[
        'HLT_BTagMu_AK4DiJet110_Mu5_v15',
        'HLT_BTagMu_AK4DiJet170_Mu5_v14',
        'HLT_BTagMu_AK4DiJet20_Mu5_v15',
        'HLT_BTagMu_AK4DiJet40_Mu5_v15',
        'HLT_BTagMu_AK4DiJet70_Mu5_v15',
        'HLT_BTagMu_AK4Jet300_Mu5_v14',
        'HLT_BTagMu_AK8DiJet170_Mu5_v11',
        'HLT_BTagMu_AK8Jet170_DoubleMu5_v4',
        'HLT_BTagMu_AK8Jet300_Mu5_v14'
]